%YAML 1.1
%TAG !u! tag:unity3d.com,2011:
--- !u!21 &2100000
Material:
  serializedVersion: 6
  m_ObjectHideFlags: 0
  m_CorrespondingSourceObject: {fileID: 0}
  m_PrefabInstance: {fileID: 0}
  m_PrefabAsset: {fileID: 0}
  m_Name: FlameMat
  m_Shader: {fileID: -6465566751694194690, guid: c66a10171e7b4774889aaf600c991027,
    type: 3}
  m_ShaderKeywords: 
  m_LightmapFlags: 4
  m_EnableInstancingVariants: 0
  m_DoubleSidedGI: 0
  m_CustomRenderQueue: -1
  stringTagMap: {}
  disabledShaderPasses: []
  m_SavedProperties:
    serializedVersion: 3
    m_TexEnvs:
    - Texture2D_2DD63DC:
        m_Texture: {fileID: 2800000, guid: 7db137e4becfbc949bac610d9078fa24, type: 3}
        m_Scale: {x: 1, y: 1}
        m_Offset: {x: 0, y: 0}
    - _MainTex:
        m_Texture: {fileID: 0}
        m_Scale: {x: 1, y: 1}
        m_Offset: {x: 0, y: 0}
    - _MaskTex:
        m_Texture: {fileID: 0}
        m_Scale: {x: 1, y: 1}
        m_Offset: {x: 0, y: 0}
    - _NormalMap:
        m_Texture: {fileID: 0}
        m_Scale: {x: 1, y: 1}
        m_Offset: {x: 0, y: 0}
    m_Floats:
    - Vector1_9FF0F8B0: 0.1
    - Vector1_A58615F2: 2
    - Vector1_A7970F05: 5
    - Vector1_FF8E0DCD: 1.2
    m_Colors:
    - Color_7B1ED78A: {r: 2.996078, g: 1.145098, b: 0, a: 1}
    - Vector2_2C57CFA0: {r: -0.1, g: -0.7, b: 0, a: 0}
    - Vector2_7F8F732E: {r: 0, g: -0.2, b: 0, a: 0}
